<mxfile host="app.diagrams.net" modified="2024-05-09T20:41:01.717Z" agent="Mozilla/5.0 (Macintosh; Intel Mac OS X 10.15; rv:125.0) Gecko/20100101 Firefox/125.0" etag="fgOy3SdutYlRzwGKWwfS" version="24.3.1" type="device">
  <diagram name="Page-1" id="B-dBR6POgccHVtPuVBJj">
    <mxGraphModel dx="1426" dy="1108" grid="0" gridSize="10" guides="1" tooltips="1" connect="1" arrows="1" fold="1" page="0" pageScale="1" pageWidth="850" pageHeight="1100" math="0" shadow="0">
      <root>
        <mxCell id="0" />
        <mxCell id="1" parent="0" />
        <mxCell id="kzFpZ2LL6hRJgOw7OHZh-4" value="" style="whiteSpace=wrap;html=1;aspect=fixed;strokeWidth=7;" vertex="1" parent="1">
          <mxGeometry x="-190" y="-116" width="575" height="575" as="geometry" />
        </mxCell>
        <mxCell id="kzFpZ2LL6hRJgOw7OHZh-5" value="" style="whiteSpace=wrap;html=1;aspect=fixed;strokeColor=#FFFFFF;fontColor=#FFFFFF;fillColor=#182E3E;" vertex="1" parent="1">
          <mxGeometry x="-93" y="-19" width="59" height="59" as="geometry" />
        </mxCell>
        <mxCell id="kzFpZ2LL6hRJgOw7OHZh-6" value="" style="whiteSpace=wrap;html=1;aspect=fixed;strokeColor=#FFFFFF;fontColor=#FFFFFF;fillColor=#182E3E;" vertex="1" parent="1">
          <mxGeometry x="43" y="234" width="59" height="59" as="geometry" />
        </mxCell>
        <mxCell id="kzFpZ2LL6hRJgOw7OHZh-7" value="" style="whiteSpace=wrap;html=1;aspect=fixed;strokeColor=#FFFFFF;fontColor=#FFFFFF;fillColor=#182E3E;" vertex="1" parent="1">
          <mxGeometry x="-93" y="184" width="59" height="59" as="geometry" />
        </mxCell>
        <mxCell id="kzFpZ2LL6hRJgOw7OHZh-8" value="" style="whiteSpace=wrap;html=1;aspect=fixed;strokeColor=#FFFFFF;fontColor=#FFFFFF;fillColor=#182E3E;" vertex="1" parent="1">
          <mxGeometry x="18" y="95" width="59" height="59" as="geometry" />
        </mxCell>
        <mxCell id="kzFpZ2LL6hRJgOw7OHZh-9" value="" style="whiteSpace=wrap;html=1;aspect=fixed;strokeColor=#FFFFFF;fontColor=#FFFFFF;fillColor=#182E3E;" vertex="1" parent="1">
          <mxGeometry x="106" y="-9" width="59" height="59" as="geometry" />
        </mxCell>
        <mxCell id="kzFpZ2LL6hRJgOw7OHZh-10" value="" style="whiteSpace=wrap;html=1;aspect=fixed;strokeColor=#FFFFFF;fontColor=#FFFFFF;fillColor=#182E3E;" vertex="1" parent="1">
          <mxGeometry x="-78" y="333" width="59" height="59" as="geometry" />
        </mxCell>
        <mxCell id="kzFpZ2LL6hRJgOw7OHZh-11" value="" style="whiteSpace=wrap;html=1;aspect=fixed;strokeColor=#FFFFFF;fontColor=#FFFFFF;fillColor=#182E3E;" vertex="1" parent="1">
          <mxGeometry x="170" y="161" width="59" height="59" as="geometry" />
        </mxCell>
        <mxCell id="kzFpZ2LL6hRJgOw7OHZh-12" value="" style="whiteSpace=wrap;html=1;aspect=fixed;strokeColor=#FFFFFF;fontColor=#FFFFFF;fillColor=#182E3E;" vertex="1" parent="1">
          <mxGeometry x="237" y="68" width="59" height="59" as="geometry" />
        </mxCell>
        <mxCell id="kzFpZ2LL6hRJgOw7OHZh-13" value="" style="shape=image;html=1;verticalAlign=top;verticalLabelPosition=bottom;labelBackgroundColor=#ffffff;imageAspect=0;aspect=fixed;image=https://cdn1.iconfinder.com/data/icons/DarkGlass_Reworked/128x128/apps/kcron.png;strokeColor=#FFFFFF;fontColor=#FFFFFF;fillColor=#182E3E;" vertex="1" parent="1">
          <mxGeometry x="-102" y="-107.25" width="77" height="77" as="geometry" />
        </mxCell>
        <mxCell id="kzFpZ2LL6hRJgOw7OHZh-15" value="" style="shape=image;html=1;verticalAlign=top;verticalLabelPosition=bottom;labelBackgroundColor=#ffffff;imageAspect=0;aspect=fixed;image=https://cdn0.iconfinder.com/data/icons/ie_Bright/128/gold.png;strokeColor=#FFFFFF;fontColor=#FFFFFF;fillColor=#182E3E;" vertex="1" parent="1">
          <mxGeometry x="259" y="341" width="84" height="84" as="geometry" />
        </mxCell>
        <mxCell id="kzFpZ2LL6hRJgOw7OHZh-16" value="&lt;font style=&quot;font-size: 30px;&quot; face=&quot;Lucida Console&quot; color=&quot;#000000&quot;&gt;Bird-eye view of the map&lt;br&gt;&lt;/font&gt;" style="text;html=1;align=center;verticalAlign=middle;whiteSpace=wrap;rounded=0;fontSize=16;fontColor=#FFFFFF;" vertex="1" parent="1">
          <mxGeometry x="-121" y="-165" width="433" height="30" as="geometry" />
        </mxCell>
        <mxCell id="kzFpZ2LL6hRJgOw7OHZh-17" value="" style="shape=flexArrow;endArrow=classic;html=1;rounded=0;strokeColor=#23445D;fontSize=12;startSize=8;endSize=8;curved=1;fillColor=#FF0080;exitX=0.75;exitY=1;exitDx=0;exitDy=0;entryX=0;entryY=0;entryDx=0;entryDy=0;" edge="1" parent="1" source="kzFpZ2LL6hRJgOw7OHZh-18" target="kzFpZ2LL6hRJgOw7OHZh-22">
          <mxGeometry width="50" height="50" relative="1" as="geometry">
            <mxPoint x="-236" y="-91" as="sourcePoint" />
            <mxPoint x="-169" y="-64" as="targetPoint" />
          </mxGeometry>
        </mxCell>
        <mxCell id="kzFpZ2LL6hRJgOw7OHZh-18" value="&lt;font color=&quot;#000000&quot; face=&quot;Lucida Console&quot;&gt;Starting position&lt;br&gt;&lt;/font&gt;" style="text;html=1;align=center;verticalAlign=middle;whiteSpace=wrap;rounded=0;fontSize=16;fontColor=#FFFFFF;" vertex="1" parent="1">
          <mxGeometry x="-346" y="-171" width="167" height="30" as="geometry" />
        </mxCell>
        <mxCell id="kzFpZ2LL6hRJgOw7OHZh-20" value="" style="shape=flexArrow;endArrow=classic;html=1;rounded=0;strokeColor=#23445D;fontSize=12;startSize=8;endSize=8;curved=1;fillColor=#FF0080;" edge="1" parent="1">
          <mxGeometry width="50" height="50" relative="1" as="geometry">
            <mxPoint x="422" y="365" as="sourcePoint" />
            <mxPoint x="356" y="384" as="targetPoint" />
          </mxGeometry>
        </mxCell>
        <mxCell id="kzFpZ2LL6hRJgOw7OHZh-21" value="&lt;font color=&quot;#000000&quot; face=&quot;Lucida Console&quot;&gt;Target position&lt;br&gt;&lt;/font&gt;" style="text;html=1;align=center;verticalAlign=middle;whiteSpace=wrap;rounded=0;fontSize=16;fontColor=#FFFFFF;" vertex="1" parent="1">
          <mxGeometry x="394" y="321" width="167" height="30" as="geometry" />
        </mxCell>
        <mxCell id="kzFpZ2LL6hRJgOw7OHZh-22" value="" style="shape=image;verticalLabelPosition=bottom;labelBackgroundColor=default;verticalAlign=top;aspect=fixed;imageAspect=0;image=https://static.vecteezy.com/system/resources/previews/012/104/982/original/drone-icon-transparent-free-png.png;" vertex="1" parent="1">
          <mxGeometry x="-179" y="-102" width="66.5" height="66.5" as="geometry" />
        </mxCell>
        <mxCell id="kzFpZ2LL6hRJgOw7OHZh-23" value="" style="shape=flexArrow;endArrow=classic;html=1;rounded=0;strokeColor=#23445D;fontSize=12;startSize=8;endSize=8;curved=1;fillColor=#FF0080;entryX=0.013;entryY=0.146;entryDx=0;entryDy=0;entryPerimeter=0;" edge="1" parent="1" target="kzFpZ2LL6hRJgOw7OHZh-13">
          <mxGeometry width="50" height="50" relative="1" as="geometry">
            <mxPoint x="-177" y="-149" as="sourcePoint" />
            <mxPoint x="-84" y="-74.41" as="targetPoint" />
          </mxGeometry>
        </mxCell>
      </root>
    </mxGraphModel>
  </diagram>
</mxfile>
