<?xml version="1.0"?>
<sdf version="1.6">
  <world name="default">
    <include>
      <uri>model://sun</uri>
    </include>
    <include>
      <uri>model://ground_plane</uri>
    </include>

    <!-- Include a model from the gazebo_models repository -->
    <include>
      <uri>model://house_1</uri>
      <pose>0 0 0 0 0 0</pose>
    </include>

    <!-- Add other models or obstacles as needed -->
  </world>
</sdf>

